<?php namespace App\Http\Requests;

use Request;

class WorksStoreRequest extends \Backpack\CRUD\app\Http\Requests\CrudRequest {

    /**
     * Determine if the user is authorized to make this request.
     *
     * @return bool
     */
    public function authorize()
    {
        // only allow updates if the user is logged in
        return \Auth::check();
    }

    /**
     * Get the validation rules that apply to the request.
     *
     * @return array
     */
    public function rules()
    {
        return [
            'name' => 'required|unique:works|min:4|max:255',
            'picture' => 'required',
        ];
    }

}

